NFL 2022 Data – Data Analytics Project
…
filtered_data <- NFL2022_stuffs %>%
  filter(
    !is.na(posteam),       
    wp > 0.2 & wp < 0.75,   
    down <= 2,              
    half_seconds_remaining > 120  
  )

summary_data <- filtered_data %>%
  group_by(posteam) %>%
  summarize(mean_pass = mean(pass, na.rm = TRUE))

print(summary_data)

# A tibble: 32 × 2
   posteam mean_pass
   <chr>       <dbl>
 1 ARI         0.553
 2 ATL         0.4  
 3 BAL         0.520
 4 BUF         0.604
 5 CAR         0.458
 6 CHI         0.420
 7 CIN         0.657
 8 CLE         0.491
 9 DAL         0.474
10 DEN         0.493
# ℹ 22 more rows
…
This line plot illustrates the weekly trend of the mean value of Expected Points Added (EPA) for two excellent passers.

Q2f

Calculate the difference between the mean value of epa for “J.Allen” the mean value of epa for “P.Mahomes” for each value of week.

Answer:

epa_difference <- NFL2022_stuffs_EPA %>%
  group_by(week) %>%
  summarise(mean_epa_difference = mean(epa[passer == "J.Allen"]) - mean(epa[passer == "P.Mahomes"]))

print(epa_difference)

# A tibble: 22 × 2
    week mean_epa_difference
   <int>               <dbl>
 1     1             -0.169 
 2     2              0.339 
 3     3             -0.0763
 4     4             -0.0803
 5     5              0.325 
 6     6              0.173 
 7     7            NaN     
 8     8            NaN     
 9     9             -0.304 
10    10             -0.429 
# ℹ 12 more rows
…
`summarise()` has grouped output by 'posteam'. You can override using the
`.groups` argument.

quantile_threshold <- quantile(passer_summary$n_pass, 0.75)

top_passers <- passer_summary %>%
  filter(n_pass >= quantile_threshold) %>%
  arrange(desc(mean_epa)) %>%
  slice_head(n = 10)

print(top_passers)

# A tibble: 29 × 4
# Groups:   posteam [29]
   posteam passer     mean_epa n_pass
   <chr>   <chr>         <dbl>  <int>
 1 ARI     K.Murray     0.0163    465
 2 ATL     M.Mariota    0.0251    370
 3 BAL     L.Jackson    0.0549    398
 4 BUF     J.Allen      0.172     785
 5 CHI     J.Fields    -0.0455    469
 6 CIN     J.Burrow     0.153     854
 7 CLE     J.Brissett   0.0912    445
 8 DAL     D.Prescott   0.147     529
 9 DEN     R.Wilson    -0.0163    609
10 DET     J.Goff       0.171     661
# ℹ 19 more rows
…
