Ben & Jerry’s: Who Buys and What Drives Spending? – Ryan Horn’s Website
…
Filtering

coupon_users <- ice_cream %>% 
  filter(usecoup == TRUE)
show(coupon_users)

# A tibble: 2,345 × 17
   priceper1 flavor_descr              size1_descr household_id household_income
       <dbl> <chr>                     <chr>              <dbl>            <dbl>
 1      3.41 CAKE BATTER               16.0 MLOZ        2001456           130000
 2      3    PISTACHIO PISTACHIO       16.0 MLOZ        2002721           210000
 3      4    PISTACHIO PISTACHIO       16.0 MLOZ        2002721           210000
 4      3.99 CHC CHIP C-DH             16.0 MLOZ        2004690            80000
 5      3.52 CHERRY GRCA               16.0 MLOZ        2002800            70000
 6      3    NEW YORK SUPER FUDGE CHU… 16.0 MLOZ        2003661           150000
 7      3.2  CAKE BATTER               16.0 MLOZ        2003661           150000
 8      3.25 CHERRY GRCA               16.0 MLOZ        2003661           150000
 9      3.5  PHISH FOOD                16.0 MLOZ        2003661           150000
10      3.99 MINT CHC CHUNK            16.0 MLOZ        2003661           150000
# ℹ 2,335 more rows
# ℹ 12 more variables: household_size <dbl>, usecoup <lgl>, couponper1 <dbl>,
#   region <chr>, married <lgl>, race <chr>, hispanic_origin <lgl>,
#   microwave <lgl>, dishwasher <lgl>, sfh <lgl>, internet <lgl>, tvcable <lgl>
…
